B0829002_CO/simulation/qsim/B0829002_CO.msim.vcd
$comment
	File created using the following command:
		vcd file B0829002_CO.msim.vcd -direction
$end
$date
	Fri Oct 14 17:55:19 2022
$end
$version
	ModelSim Version 2020.1
$end
$timescale
	1ps
$end

$scope module B0829002_CO_vlg_vec_tst $end
$var reg 1 ! CLK $end
$var reg 1 " D0 $end
$var reg 1 # D1 $end
$var reg 1 $ D2 $end
$var reg 1 % D3 $end
$var reg 1 & S0 $end
$var reg 1 ' S1 $end
$var wire 1 ( Output0 $end
$var wire 1 ) Output1 $end
$var wire 1 * Output2 $end
$var wire 1 + Output3 $end

$scope module i1 $end
$var wire 1 , gnd $end
$var wire 1 - vcc $end
$var wire 1 . unknown $end
$var tri1 1 / devclrn $end
$var tri1 1 0 devpor $end
$var tri1 1 1 devoe $end
$var wire 1 2 ~QUARTUS_CREATED_GND~I_combout $end
$var wire 1 3 CLK~input_o $end
$var wire 1 4 CLK~inputCLKENA0_outclk $end
$var wire 1 5 S0~input_o $end
$var wire 1 6 S1~input_o $end
$var wire 1 7 D3~input_o $end
$var wire 1 8 D2~input_o $end
$var wire 1 9 D1~input_o $end
$var wire 1 : inst6|6~0_combout $end
$var wire 1 ; inst1~q $end
$var wire 1 < inst5|6~0_combout $end
$var wire 1 = inst2~q $end
$var wire 1 > inst4|6~0_combout $end
$var wire 1 ? inst7~q $end
$var wire 1 @ D0~input_o $end
$var wire 1 A inst3|6~0_combout $end
$var wire 1 B inst~q $end
$upscope $end
$upscope $end
$enddefinitions $end
#0
$dumpvars
0!
1"
1#
0$
1%
0&
1'
0(
0)
0*
0+
0,
1-
x.
1/
10
11
02
03
04
05
16
17
08
19
0:
0;
0<
0=
0>
0?
1@
0A
0B
$end
#5000
1!
0"
0#
1$
0'
13
0@
09
18
06
14
#10000
0%
0!
1"
1#
07
03
1@
19
04
#15000
1&
1'
1%
1!
15
16
17
13
14
1>
1A
1<
1:
#20000
0"
0%
0!
0@
07
03
04
0>
0A
#25000
0#
0'
1!
09
06
13
14
0<
0:
1=
1;
1)
1*
1<
1>
#30000
1"
1%
1#
0!
1@
17
19
03
04
#35000
0&
1'
0%
1!
05
16
07
13
14
0>
1A
0<
1:
1?
0;
0)
1+
0A
1<
#40000
0$
1&
1%
0!
08
15
17
03
04
1>
1A
0<
#45000
0"
0#
0&
1!
0@
09
05
13
14
0A
0>
1<
1B
0=
1;
1)
0*
1(
1A
0:
1>
#50000
0'
1$
0%
1"
1&
0!
06
18
07
1@
15
03
04
0>
1:
#55000
0$
0&
1!
08
05
13
14
1>
0<
0?
1=
1*
0+
0>
1<
#60000
1#
1'
0"
1&
0!
19
16
0@
15
03
04
0A
0<
#65000
1%
1$
0#
1"
1!
17
18
09
1@
13
14
1A
0:
1<
1>
0B
0=
0*
0(
#70000
0&
0%
0!
05
07
03
04
0>
0<
#75000
0$
1%
1!
08
17
13
14
1B
0;
0)
1(
0A
1>
#80000
1&
0%
0!
15
07
03
04
0>
1A
#85000
0'
1#
1$
1%
1!
06
19
18
17
13
14
1:
0A
#90000
0#
0$
0!
09
08
03
04
#95000
0%
1#
1!
07
19
13
14
0B
1;
1)
0(
1<
0:
#100000
0"
0&
1'
1$
1%
0#
0!
0@
05
16
18
17
09
03
04
0<
1A
#105000
0'
0$
1#
1!
06
08
19
13
14
1:
0A
1B
0;
0)
1(
1A
0:
#110000
1"
1&
1$
0#
0!
1@
15
18
09
03
04
1:
0A
#115000
0&
0$
1#
1!
05
08
19
13
14
0:
1A
0B
1;
1)
0(
0A
1:
#120000
0%
1'
0#
0!
07
16
09
03
04
0:
1A
#125000
0"
1%
0'
1!
0@
17
06
13
14
0A
1:
1B
0;
0)
1(
1A
0:
#130000
1&
1#
1'
0!
15
19
16
03
04
0A
1>
1:
#135000
0%
0#
0'
1!
07
09
06
13
14
0>
0B
1?
1;
1)
1+
0(
1A
1<
0:
#140000
1"
0&
1%
1#
0!
1@
05
17
19
03
04
1:
1>
0A
0<
#145000
1'
0"
1!
16
0@
13
14
1A
0>
1<
0:
#150000
1&
0%
0#
0!
15
07
09
03
04
0A
0<
#155000
1$
1"
1!
18
1@
13
14
1A
1<
0?
0;
0)
0+
#160000
0&
1#
0$
0!
05
19
08
03
04
0<
0A
#165000
1%
1&
0#
1!
17
15
09
13
14
1A
1>
#170000
0'
0%
0&
0!
06
07
05
03
04
0A
0>
#175000
1$
1#
1'
1&
1!
18
19
16
15
13
14
1A
1<
1:
#180000
0"
0$
0&
0!
0@
08
05
03
04
0A
0<
0:
#185000
0#
1&
1!
09
15
13
14
#190000
0'
0&
0!
06
05
03
04
#195000
1"
1#
1!
1@
19
13
14
#200000
1%
1$
1'
0"
0#
0!
17
18
16
0@
09
03
04
#205000
1&
0'
1!
15
06
13
14
#210000
0%
0$
1"
1#
1'
0!
07
08
1@
19
16
03
04
1A
1:
#215000
0&
0'
1!
05
06
13
14
0A
0:
1B
1;
1)
1(
1A
1:
#220000
0"
0#
1'
0!
0@
09
16
03
04
1>
0:
#225000
1"
1#
0'
1!
1@
19
06
13
14
0>
1:
1?
0;
0)
1+
0:
1>
#230000
1%
1$
0"
0#
0!
17
18
0@
09
03
04
#235000
1'
0%
0$
1"
1#
1!
16
07
08
1@
19
13
14
0A
1<
#240000
0'
0"
0!
06
0@
03
04
1A
0<
#245000
1%
1$
0#
1'
1!
17
18
09
16
13
14
0A
1<
#250000
0!
03
04
#255000
1"
0%
0$
1!
1@
07
08
13
14
0B
1=
1*
0(
0>
1:
#260000
1&
1%
0!
15
17
03
04
1>
1A
0<
0:
#265000
0'
0"
0&
0%
1!
06
0@
05
07
13
14
0A
1<
1B
0=
0*
1(
0<
1A
#270000
1#
1$
1'
1%
0!
19
18
16
17
03
04
0A
1<
#275000
1"
0#
0$
0'
0%
1!
1@
09
08
06
07
13
14
1A
0<
0B
1=
1*
0(
1<
0A
#280000
1#
1%
0!
19
17
03
04
#285000
1&
0"
0%
1!
15
0@
07
13
14
1A
0<
#290000
1$
0&
1"
0!
18
05
1@
03
04
0A
1<
#295000
1'
1&
0"
1!
16
15
0@
13
14
0>
1:
#300000
1%
1"
0!
17
1@
03
04
1A
1>
#305000
0$
0'
0&
0%
1!
08
06
05
07
13
14
0A
0:
1B
1;
1)
1(
1A
1:
#310000
0#
1$
1&
1%
0!
09
18
15
17
03
04
#315000
1'
0$
0&
1!
16
08
05
13
14
#320000
0"
1#
1$
0!
0@
19
18
03
04
#325000
0%
1!
07
13
14
#330000
0#
0$
0!
09
08
03
04
#335000
0'
1&
1%
1!
06
15
17
13
14
#340000
1#
1'
0&
0!
19
16
05
03
04
#345000
1$
0%
0#
1!
18
07
09
13
14
#350000
0$
1%
0!
08
17
03
04
#355000
0'
1&
1#
1$
0%
1!
06
15
19
18
07
13
14
#360000
1'
0&
0#
0$
0!
16
05
09
08
03
04
#365000
1"
1%
1!
1@
17
13
14
#370000
0%
0!
07
03
04
#375000
1&
0"
1%
1!
15
0@
17
13
14
0A
0<
0:
#380000
1$
1"
0%
0!
18
1@
07
03
04
0>
1A
1<
#385000
0'
1#
0&
0$
0"
1%
1!
06
19
05
08
0@
17
13
14
1>
1:
0?
0;
0)
0+
0:
0>
#390000
1$
0%
0!
18
07
03
04
#395000
0#
1"
0$
1%
1!
09
1@
08
17
13
14
#400000
1'
1#
1$
0!
16
19
18
03
04
0<
1:
0A
1>
#405000
0"
0%
0'
0#
1!
0@
07
06
09
13
14
0:
1A
0>
1<
0B
1?
0=
1;
1)
0*
1+
0(
0A
0<
1:
1>
#410000
1&
0$
1"
1'
0!
15
08
1@
16
03
04
1A
0>
0:
#415000
0"
0'
1!
0@
06
13
14
1<
1B
0?
0;
0)
0+
1(
0A
0<
1:
#420000
1%
1#
0&
1$
1"
0!
17
19
05
18
1@
03
04
1A
0:
#425000
0#
1&
0"
1!
09
15
0@
13
14
0A
1:
#430000
0!
03
04
#435000
0$
1#
0&
1!
08
19
05
13
14
1A
0:
0B
1;
1)
0(
0A
1:
#440000
1'
0%
1$
0!
16
07
18
03
04
1A
0:
#445000
0'
1!
06
13
14
0A
1:
1B
0;
0)
1(
1A
0:
#450000
1"
0!
1@
03
04
#455000
0#
1%
0$
1!
09
17
08
13
14
#460000
1'
0"
1#
0%
0!
16
0@
19
07
03
04
1>
0A
#465000
1&
1$
0'
1!
15
18
06
13
14
0>
1:
0B
1?
1+
0(
1A
0:
#470000
1"
0&
0$
1'
0!
1@
05
08
16
03
04
0A
1<
#475000
0#
1%
0"
1&
0'
1!
09
17
0@
15
06
13
14
1A
0<
0?
1=
1*
0+
1>
0A
#480000
1"
0&
0!
1@
05
03
04
0>
1<
#485000
1$
0%
1'
1!
18
07
16
13
14
0<
1:
#490000
1#
0"
1%
0!
19
0@
17
03
04
#495000
1&
0#
0%
1!
15
09
07
13
14
0:
1<
0=
1;
1)
0*
#500000
0'
1"
0&
1#
1%
0!
06
1@
05
19
17
03
04
1:
0<
#505000
0"
0#
0%
1!
0@
09
07
13
14
#510000
0$
1'
1&
1"
1%
0!
08
16
15
1@
17
03
04
1>
1A
0:
#515000
1#
0%
1!
19
07
13
14
0>
1:
1B
1?
0;
0)
1+
1(
#520000
1%
0!
17
03
04
1>
#525000
1$
0'
0#
1!
18
06
09
13
14
0>
1;
1)
1<
#530000
0&
0$
0!
05
08
03
04
0<
1>
#535000
0"
0%
1&
1$
1!
0@
07
15
18
13
14
1<
0>
#540000
1#
0&
0!
19
05
03
04
1>
0<
#545000
1!
13
14
#550000
1'
1"
1%
0!
16
1@
17
03
04
1<
0:
#555000
0$
0'
1!
08
06
13
14
0<
1:
1=
0;
0)
1*
1<
0:
#560000
1&
0"
0!
15
0@
03
04
0<
1:
#565000
1'
0&
1"
1!
16
05
1@
13
14
0A
1<
0=
1;
1)
0*
1A
0:
#570000
0#
0"
0!
09
0@
03
04
#575000
0%
1"
1!
07
1@
13
14
1=
0;
0)
1*
0A
1:
#580000
1$
1&
1#
1%
0!
18
15
19
17
03
04
1A
#585000
0"
0$
0%
1!
0@
08
07
13
14
0>
0<
0A
1;
1)
#590000
0'
1"
1$
1%
0!
06
1@
18
17
03
04
1>
1<
1A
#595000
0"
0$
1!
0@
08
13
14
#600000
0!
03
04
#605000
0#
0%
1"
1$
1!
09
07
1@
18
13
14
#610000
1'
1#
0$
0!
16
19
08
03
04
0<
0>
#615000
0&
1%
0#
1!
05
17
09
13
14
1>
1<
0?
0=
0*
0+
0<
0:
#620000
0"
0%
1#
0!
0@
07
19
03
04
#625000
0'
1$
1&
1"
1%
0#
1!
06
18
15
1@
17
09
13
14
1:
0>
0A
1<
1?
0;
0)
1+
1A
0<
#630000
1'
0$
0&
0!
16
08
05
03
04
0A
1>
1<
0:
#635000
1#
1!
19
13
14
0B
1=
1*
0(
0>
1:
#640000
0"
0'
1$
1&
0!
0@
06
18
15
03
04
1A
1>
0<
0:
#645000
0%
0$
1!
07
08
13
14
1B
0=
0*
1(
0>
1:
#650000
1'
0&
1%
1$
0!
16
05
17
18
03
04
1<
1>
0A
0:
#655000
0#
0'
1&
1!
09
06
15
13
14
1A
0>
0<
1:
0B
1=
1*
0(
1>
0:
#660000
1"
0%
0$
1#
1'
0!
1@
07
08
19
16
03
04
0>
1:
#665000
0&
0"
0#
0'
1!
05
0@
09
06
13
14
0A
1>
1<
0:
1B
0?
0=
1;
1)
0*
0+
1(
1A
0<
1:
0>
#670000
1&
1"
0!
15
1@
03
04
0A
1<
#675000
1%
1$
1'
1!
17
18
16
13
14
1A
1>
0:
0B
1=
1*
0(
#680000
1#
0&
0"
0%
0$
0'
0!
19
05
0@
07
08
06
03
04
0A
0>
1:
#685000
0#
1$
1'
1!
09
18
16
13
14
1A
0<
#690000
1&
1%
1#
0'
0!
15
17
19
06
03
04
0A
1>
1<
0:
#695000
1"
0$
0%
0#
1!
1@
08
07
09
13
14
1?
0;
0)
1+
1A
0<
#700000
1'
1$
1%
0!
16
18
17
03
04
1<
#705000
0&
0"
0'
0%
1!
05
0@
06
07
13
14
0A
1B
1(
1A
#710000
0$
1'
0!
08
16
03
04
0A
1:
#715000
1&
1$
1!
15
18
13
14
0>
0:
0B
1;
1)
0(
#720000
1#
1"
0'
0!
19
1@
06
03
04
1A
1>
#725000
1!
13
14
1B
0;
0)
1(
0<
1:
#730000
0$
0#
0"
1'
0!
08
09
0@
16
03
04
0A
0>
0:
#735000
1%
1$
0'
1!
17
18
06
13
14
1A
1>
1:
0B
0?
0=
0*
0+
0(
0>
0:
0A
#740000
1#
0%
0$
1'
0!
19
07
08
16
03
04
1:
#745000
0&
0#
1%
1$
0'
1!
05
09
17
18
06
13
14
0:
1;
1)
1:
#750000
1"
1&
0%
0!
1@
15
07
03
04
1<
0:
#755000
1#
0"
1%
1!
19
0@
17
13
14
1=
0;
0)
1*
0<
1>
#760000
0&
0#
1"
0%
0!
05
09
1@
07
03
04
0>
1<
#765000
0$
0"
1!
08
0@
13
14
#770000
1'
1#
1$
1"
0!
16
19
18
1@
03
04
0<
1:
#775000
0#
0$
0"
1!
09
08
0@
13
14
0=
1;
1)
0*
1A
0:
#780000
1&
0'
1#
1$
0!
15
06
19
18
03
04
1<
0A
#785000
1"
0#
0$
1!
1@
09
08
13
14
1=
0;
0)
1*
0<
1>
#790000
1'
1#
1$
0!
16
19
18
03
04
1<
1:
1A
0>
#795000
0"
1!
0@
13
14
0A
1B
1;
1)
1(
#800000
1%
0'
0#
0$
0!
17
06
09
08
03
04
1>
#805000
0&
1"
0%
1!
05
1@
07
13
14
0>
1A
0B
1?
1+
0(
0A
1>
#810000
1'
1$
0"
0!
16
18
0@
03
04
1A
0>
#815000
1#
1&
0$
1"
1!
19
15
08
1@
13
14
0<
1B
0?
0+
1(
#820000
1%
0'
0&
1$
0"
0!
17
06
05
18
0@
03
04
1<
#825000
0%
1&
1!
07
15
13
14
0A
1>
#830000
1"
0&
0!
1@
05
03
04
1A
0>
#835000
0#
0$
1%
1!
09
08
17
13
14
#840000
1'
1&
1$
0%
0!
16
15
18
07
03
04
0:
#845000
0"
0'
1!
0@
06
13
14
0A
1>
1:
0;
0)
0<
#850000
0&
0!
05
03
04
1A
0>
1<
0:
#855000
1&
1!
15
13
14
0A
1>
0<
1:
#860000
0$
1%
1'
0!
08
17
16
03
04
0:
#865000
1#
0&
1$
1!
19
05
18
13
14
1:
0B
1?
0=
0*
1+
0(
0>
1<
0:
#870000
1"
0%
0'
0#
0$
0!
1@
07
06
09
08
03
04
0<
1>
#875000
1%
1!
17
13
14
#880000
1#
1$
0%
0!
19
18
07
03
04
#885000
0"
1'
0#
0$
1!
0@
16
09
08
13
14
1<
0>
#890000
1&
1%
1"
1#
1$
0!
15
17
1@
19
18
03
04
1:
1A
1>
#895000
0&
0%
0"
0$
1!
05
07
0@
08
13
14
0A
0>
0:
1B
1=
1;
1)
1*
1(
1A
1:
1>
#900000
0'
0#
1%
1$
0!
06
09
17
18
03
04
#905000
1'
1#
0%
0$
1!
16
19
07
08
13
14
#910000
1"
0'
0#
1%
1$
0!
1@
06
09
17
18
03
04
#915000
1&
0"
1'
0%
1!
15
0@
16
07
13
14
0>
0A
0:
#920000
0$
0&
1"
0!
08
05
1@
03
04
1A
1>
1:
#925000
1#
0'
1&
1!
19
06
15
13
14
#930000
0#
0&
0!
09
05
03
04
#935000
1%
1$
1#
1!
17
18
19
13
14
#940000
1'
0!
16
03
04
#945000
0"
1!
0@
13
14
#950000
1&
0%
0#
0!
15
07
09
03
04
0:
0>
0A
#955000
0'
1"
1%
1#
1!
06
1@
17
19
13
14
1:
1>
1A
0B
0?
0;
0)
0+
0(
0A
0<
0:
#960000
0$
0"
0%
0#
0!
08
0@
07
09
03
04
#965000
0&
1$
1%
1!
05
18
17
13
14
0>
1<
1?
0=
0*
1+
1>
0<
#970000
1'
1#
1&
0%
0!
16
19
15
07
03
04
0>
1<
1:
#975000
1"
0$
1!
1@
08
13
14
0<
1A
0?
1=
1;
1)
1*
0+
#980000
0'
0#
0&
1%
1$
0!
06
09
05
17
18
03
04
1<
0A
#985000
0"
1'
1#
1&
0%
0$
1!
0@
16
19
15
07
08
13
14
0<
#990000
1"
0&
1$
0!
1@
05
18
03
04
1A
#995000
0#
1%
0"
1&
0$
1!
09
17
0@
15
08
13
14
0A
1>
0:
1B
0=
0*
1(
