Datapath2/simulation/qsim/Datapath2.msim.vcd
$comment
	File created using the following command:
		vcd file Datapath2.msim.vcd -direction
$end
$date
	Thu Oct 27 21:52:30 2022
$end
$version
	ModelSim Version 2020.1
$end
$timescale
	1ps
$end

$scope module Absolute2_vlg_vec_tst $end
$var reg 4 ! A [3:0] $end
$var reg 4 " B [3:0] $end
$var reg 1 # CLK $end
$var wire 1 $ out [3] $end
$var wire 1 % out [2] $end
$var wire 1 & out [1] $end
$var wire 1 ' out [0] $end

$scope module i1 $end
$var wire 1 ( gnd $end
$var wire 1 ) vcc $end
$var wire 1 * unknown $end
$var tri1 1 + devclrn $end
$var tri1 1 , devpor $end
$var tri1 1 - devoe $end
$var wire 1 . ~QUARTUS_CREATED_GND~I_combout $end
$var wire 1 / CLK~input_o $end
$var wire 1 0 CLK~inputCLKENA0_outclk $end
$var wire 1 1 B[0]~input_o $end
$var wire 1 2 state.01~q $end
$var wire 1 3 state.10~DUPLICATE_q $end
$var wire 1 4 state.11~feeder_combout $end
$var wire 1 5 state.11~q $end
$var wire 1 6 state.00~0_combout $end
$var wire 1 7 state.00~q $end
$var wire 1 8 state.01~0_combout $end
$var wire 1 9 state.01~DUPLICATE_q $end
$var wire 1 : A[0]~input_o $end
$var wire 1 ; Add0~18_cout $end
$var wire 1 < Add0~1_sumout $end
$var wire 1 = state.10~q $end
$var wire 1 > A[3]~input_o $end
$var wire 1 ? B[3]~input_o $end
$var wire 1 @ A[2]~input_o $end
$var wire 1 A B[2]~input_o $end
$var wire 1 B A[1]~input_o $end
$var wire 1 C B[1]~input_o $end
$var wire 1 D Add0~2 $end
$var wire 1 E Add0~6 $end
$var wire 1 F Add0~10 $end
$var wire 1 G Add0~13_sumout $end
$var wire 1 H Selector0~0_combout $end
$var wire 1 I store[0]~2_combout $end
$var wire 1 J out[0]~reg0_q $end
$var wire 1 K Add0~5_sumout $end
$var wire 1 L out[1]~reg0_q $end
$var wire 1 M Add0~9_sumout $end
$var wire 1 N out[2]~reg0feeder_combout $end
$var wire 1 O out[2]~reg0_q $end
$var wire 1 P out[3]~reg0_q $end
$var wire 1 Q store [3] $end
$var wire 1 R store [2] $end
$var wire 1 S store [1] $end
$var wire 1 T store [0] $end
$upscope $end
$upscope $end
$enddefinitions $end
#0
$dumpvars
b1111 !
b1100 "
0#
0'
0&
0%
0$
0(
1)
x*
1+
1,
1-
0.
0/
00
01
02
03
04
05
16
07
18
09
1:
1;
1<
0=
1>
1?
1@
1A
1B
0C
0D
0E
0F
1G
0H
0I
0J
0K
0L
1M
0N
0O
0P
0T
0S
0R
0Q
$end
#5000
1#
1/
10
19
17
12
1I
1E
1D
1H
08
1F
0M
1K
0G
0H
#10000
0#
0/
00
#15000
1#
1/
10
1S
1T
1=
09
13
02
0I
0E
0D
14
0F
1M
0K
1G
#20000
0#
0/
00
#25000
1#
1/
10
0=
15
03
04
06
#30000
0#
0/
00
#35000
1#
1/
10
07
05
1L
1J
1'
1&
16
18
#40000
b100 "
b110 "
b111 "
b1011 !
b1001 !
0#
0B
0@
11
1C
0?
0/
00
0G
1E
1D
1F
0<
0M
1G
1M
1K
#45000
1#
1/
10
19
17
12
1I
0F
0E
1H
08
0G
0M
0H
#50000
0#
0/
00
#55000
1#
1/
10
0T
1=
09
13
02
0I
1F
1E
14
1G
1M
#60000
0#
0/
00
#65000
1#
1/
10
0=
15
03
04
06
#70000
0#
0/
00
#75000
1#
1/
10
07
05
0J
0'
16
18
#80000
b11 "
b1 !
b1011 "
b1001 "
b1000 "
b11 !
0#
1B
0>
01
0C
0A
1?
0/
00
0E
0D
0M
1<
0F
1M
0K
0G
#85000
1#
1/
10
19
17
12
1I
1E
1D
08
1F
0M
1K
1G
1H
#90000
0#
0/
00
#95000
1#
1/
10
1T
1Q
1=
09
13
02
0E
0D
14
0F
1M
0K
0G
0H
#100000
0#
0/
00
#105000
1#
1/
10
1R
0S
0Q
0=
15
03
0I
04
06
1N
#110000
0#
0/
00
#115000
1#
1/
10
07
05
1O
0L
1J
1'
0&
1%
16
18
#120000
b111 !
b1001 "
b101 !
0#
11
0B
1@
0/
00
1D
0M
1K
0<
1E
0K
1M
#125000
1#
1/
10
19
17
12
1I
1F
08
1G
1H
#130000
0#
0/
00
#135000
1#
1/
10
0T
1Q
1=
09
13
02
0F
14
0G
0H
#140000
0#
0/
00
#145000
1#
1/
10
0Q
0=
15
03
0I
04
06
#150000
0#
0/
00
#155000
1#
1/
10
07
05
0J
0'
16
18
#160000
b100 !
b1011 "
b0 !
b1010 "
b10 !
0#
01
1C
0:
1B
0@
0/
00
1F
0M
1G
#165000
1#
1/
10
19
17
12
1I
1H
08
#170000
0#
0/
00
#175000
1#
1/
10
0R
1Q
1=
09
13
02
14
0N
#180000
0#
0/
00
#185000
1#
1/
10
0=
15
03
0I
04
06
#190000
0#
0/
00
#195000
1#
1/
10
07
05
1P
0O
0%
1$
16
18
#200000
b1110 "
b110 "
b111 "
b0 !
0#
0B
11
1A
0?
0/
00
0G
1M
1<
1K
#205000
1#
1/
10
19
17
12
1I
0F
0E
0D
0H
08
1G
0M
0K
1H
#210000
0#
0/
00
#215000
1#
1/
10
1T
1=
09
13
02
1F
1E
1D
14
0G
1M
1K
0H
#220000
0#
0/
00
#225000
1#
1/
10
1R
1S
0Q
0=
15
03
0I
04
06
1N
#230000
0#
0/
00
#235000
1#
1/
10
07
05
0P
1O
1L
1J
1'
1&
1%
0$
16
18
#240000
b100 !
b110 "
b110 !
0#
01
1B
1@
0/
00
0M
0K
0<
#245000
1#
1/
10
19
17
12
1I
08
#250000
0#
0/
00
#255000
1#
1/
10
0R
0S
0T
1=
09
13
02
0I
14
0N
#260000
0#
0/
00
#265000
1#
1/
10
0=
15
03
04
06
#270000
0#
0/
00
#275000
1#
1/
10
07
05
0O
0L
0J
0'
0&
0%
16
18
#280000
b1110 !
b1110 "
0#
1?
1>
0/
00
#285000
1#
1/
10
19
17
12
1I
08
#290000
0#
0/
00
#295000
1#
1/
10
1=
09
13
02
0I
14
#300000
0#
0/
00
#305000
1#
1/
10
0=
15
03
04
06
#310000
0#
0/
00
#315000
1#
1/
10
07
05
16
18
#320000
b1111 !
b1111 "
b1101 !
b101 !
b111 "
0#
11
0?
1:
0B
0>
0/
00
1K
#325000
1#
1/
10
19
17
12
1I
0E
08
0F
1M
1G
1H
#330000
0#
0/
00
#335000
1#
1/
10
1R
1S
1Q
1=
09
13
02
1E
14
1N
1F
0M
0G
0H
#340000
0#
0/
00
#345000
1#
1/
10
0R
0Q
0=
15
03
0I
04
06
0N
#350000
0#
0/
00
#355000
1#
1/
10
07
05
1L
1&
16
18
#360000
b1 !
0#
0@
0/
00
1M
#365000
1#
1/
10
19
17
12
1I
0F
0E
08
1G
0M
1H
#370000
0#
0/
00
#375000
1#
1/
10
1Q
1=
09
13
02
1F
1E
14
0G
1M
0H
#380000
0#
0/
00
#385000
1#
1/
10
1R
0Q
0=
15
03
0I
04
06
1N
#390000
0#
0/
00
#395000
1#
1/
10
07
05
1O
1%
16
18
#400000
b101 "
b0 !
b100 "
b1000 !
b1100 "
0#
0:
1>
01
0C
1?
0/
00
0K
#405000
1#
1/
10
19
17
12
1I
0F
08
1G
1H
#410000
0#
0/
00
#415000
1#
1/
10
0S
1Q
1=
09
13
02
1F
14
0G
0H
#420000
0#
0/
00
#425000
1#
1/
10
0Q
0=
15
03
0I
04
06
#430000
0#
0/
00
#435000
1#
1/
10
07
05
0L
0&
16
18
#440000
b1000 "
b1010 !
b1011 !
b11 !
0#
1:
1B
0>
0A
0/
00
1G
0E
0D
0M
1K
1<
0F
1M
0K
0G
#445000
1#
1/
10
19
17
12
1I
1E
1D
08
1F
0M
1K
1G
1H
#450000
0#
0/
00
#455000
1#
1/
10
0R
1S
1T
1Q
1=
09
13
02
0E
0D
14
0N
0F
1M
0K
0G
0H
#460000
0#
0/
00
#465000
1#
1/
10
1R
0S
0Q
0=
15
03
0I
04
06
1N
#470000
0#
0/
00
#475000
1#
1/
10
07
05
1J
1'
16
18
#480000
b1001 "
b1101 "
b1 !
b0 !
b1000 !
0#
0:
0B
1>
11
1A
0/
00
1F
1D
1G
0M
1K
0G
1E
0K
1M
#485000
1#
1/
10
19
17
12
1I
0F
0D
08
1G
0E
1K
0M
1H
#490000
0#
0/
00
#495000
1#
1/
10
0R
1S
1Q
1=
09
13
02
1F
1D
14
0N
0G
1E
0K
1M
0H
#500000
0#
0/
00
#505000
1#
1/
10
1R
0S
0Q
0=
15
03
0I
04
06
1N
#510000
0#
0/
00
#515000
1#
1/
10
07
05
16
18
#520000
b1111 "
b111 "
b110 "
0#
01
1C
0?
0/
00
1G
1K
0<
#525000
1#
1/
10
19
17
12
1I
0F
0E
1H
08
0G
0M
0H
#530000
0#
0/
00
#535000
1#
1/
10
0R
1S
0T
1=
09
13
02
0I
1F
1E
14
0N
1G
1M
#540000
0#
0/
00
#545000
1#
1/
10
0=
15
03
04
06
#550000
0#
0/
00
#555000
1#
1/
10
07
05
0O
1L
0J
0'
1&
0%
16
18
#560000
b1100 !
b10 "
b1110 !
b1111 !
b0 "
0#
0C
0A
1:
1B
1@
0/
00
0F
0E
0D
1<
0G
0M
0K
#565000
1#
1/
10
19
17
12
1I
1F
1E
1D
08
1G
1M
1K
1H
#570000
0#
0/
00
#575000
1#
1/
10
1R
1T
1Q
1=
09
13
02
0F
0E
0D
14
1N
0G
0M
0K
0H
#580000
0#
0/
00
#585000
1#
1/
10
0R
0S
0Q
0=
15
03
0I
04
06
0N
#590000
0#
0/
00
#595000
1#
1/
10
07
05
0L
1J
1'
0&
16
18
#600000
b100 "
b110 "
0#
1C
1A
0/
00
1M
1K
#605000
1#
1/
10
19
17
12
1I
1D
08
1E
0K
1F
0M
1G
1H
#610000
0#
0/
00
#615000
1#
1/
10
1Q
1=
09
13
02
0D
14
0E
1K
0F
1M
0G
0H
#620000
0#
0/
00
#625000
1#
1/
10
1R
1S
0Q
0=
15
03
0I
04
06
1N
#630000
0#
0/
00
#635000
1#
1/
10
07
05
1O
1L
1&
1%
16
18
#640000
b111 !
b1110 "
b101 !
b1010 "
0#
0A
1?
0B
0>
0/
00
1E
0K
0M
1M
#645000
1#
1/
10
19
17
12
1I
1F
0E
1D
08
1G
0M
1K
1H
#650000
0#
0/
00
#655000
1#
1/
10
0R
1Q
1=
09
13
02
0F
1E
0D
14
0N
0G
1M
0K
0H
#660000
0#
0/
00
#665000
1#
1/
10
1R
0S
0Q
0=
15
03
0I
04
06
1N
#670000
0#
0/
00
#675000
1#
1/
10
07
05
0L
0&
16
18
#680000
b100 !
b1000 "
0#
0C
0:
0/
00
1D
0E
0<
1K
1E
0K
0M
1M
#685000
1#
1/
10
19
17
12
1I
1F
08
1G
1H
#690000
0#
0/
00
#695000
1#
1/
10
0T
1Q
1=
09
13
02
0F
14
0G
0H
#700000
0#
0/
00
#705000
1#
1/
10
0Q
0=
15
03
0I
04
06
#710000
0#
0/
00
#715000
1#
1/
10
07
05
0J
0'
16
18
#720000
b1001 "
b1 "
b101 "
b111 "
0#
11
1C
1A
0?
0/
00
1G
1F
0M
1K
1<
0G
#725000
1#
1/
10
19
17
12
1I
0E
0D
08
0F
1M
0K
1G
1H
#730000
0#
0/
00
#735000
1#
1/
10
1T
1Q
1=
09
13
02
1E
1D
14
1F
0M
1K
0G
0H
#740000
0#
0/
00
#745000
1#
1/
10
0R
1S
0Q
0=
15
03
0I
04
06
0N
#750000
0#
0/
00
#755000
1#
1/
10
07
05
0O
1L
1J
1'
1&
0%
16
18
#760000
b1100 !
b1101 !
b1111 "
b1011 "
b1001 "
0#
0C
0A
1?
1:
1>
0/
00
0F
0<
1M
0K
1G
#765000
1#
1/
10
19
17
12
1I
1F
1H
08
0G
0H
#770000
0#
0/
00
#775000
1#
1/
10
1R
0S
0T
1=
09
13
02
0I
0F
14
1N
1G
#780000
0#
0/
00
#785000
1#
1/
10
0=
15
03
04
06
#790000
0#
0/
00
#795000
1#
1/
10
07
05
1O
0L
0J
0'
0&
1%
16
18
#800000
b1111 !
b1000 "
b1110 !
b0 "
b100 "
b110 "
0#
01
1C
1A
0?
0:
1B
0/
00
0G
1F
0M
1G
#805000
1#
1/
10
19
17
12
1I
1H
08
#810000
0#
0/
00
#815000
1#
1/
10
0R
1Q
1=
09
13
02
14
0N
#820000
0#
0/
00
#825000
1#
1/
10
0=
15
03
0I
04
06
#830000
0#
0/
00
#835000
1#
1/
10
07
05
1P
0O
0%
1$
16
18
#840000
b1010 !
b10 !
b0 !
b1 !
b1110 "
0#
1?
1:
0B
0@
0>
0/
00
0D
1M
1K
1<
0K
#845000
1#
1/
10
19
17
12
1I
0F
0E
1D
08
0G
0M
1K
0H
#850000
0#
0/
00
#855000
1#
1/
10
1S
1T
0Q
1=
09
13
02
0I
1F
1E
0D
14
1G
1M
0K
#860000
0#
0/
00
#865000
1#
1/
10
0=
15
03
04
06
#870000
0#
0/
00
#875000
1#
1/
10
07
05
0P
1L
1J
1'
1&
0$
16
18
#880000
b1111 "
b1011 "
b1001 !
b1011 !
b11 "
0#
1B
1>
11
0A
0?
0/
00
1D
0E
0M
0<
1K
1E
0F
0K
1M
1F
0G
0M
1G
#885000
1#
1/
10
19
17
12
1I
1H
08
#890000
0#
0/
00
#895000
1#
1/
10
0S
0T
1Q
1=
09
13
02
14
#900000
0#
0/
00
#905000
1#
1/
10
0=
15
03
0I
04
06
#910000
0#
0/
00
#915000
1#
1/
10
07
05
1P
0L
0J
0'
0&
1$
16
18
#920000
b111 "
b11 !
b1 !
b1111 "
0#
0B
0>
1A
1?
0/
00
1M
1K
#925000
1#
1/
10
19
17
12
1I
0F
0E
08
0G
0M
0H
#930000
0#
0/
00
#935000
1#
1/
10
1S
0Q
1=
09
13
02
0I
1F
1E
14
1G
1M
#940000
0#
0/
00
#945000
1#
1/
10
0=
15
03
04
06
#950000
0#
0/
00
#955000
1#
1/
10
07
05
0P
1L
1&
0$
16
18
#960000
b101 !
b100 !
b1110 "
0#
01
0:
1@
0/
00
0M
#965000
1#
1/
10
19
17
12
1I
0E
1H
08
0F
1M
0G
0H
#970000
0#
0/
00
#975000
1#
1/
10
1R
1=
09
13
02
0I
1E
14
1N
1F
0M
1G
#980000
0#
0/
00
#985000
1#
1/
10
0=
15
03
04
06
#990000
0#
0/
00
#995000
1#
1/
10
07
05
1O
1%
16
18
