Datapath/simulation/qsim/Datapath.msim.vcd
$comment
	File created using the following command:
		vcd file Datapath.msim.vcd -direction
$end
$date
	Fri Oct 28 13:14:36 2022
$end
$version
	ModelSim Version 2020.1
$end
$timescale
	1ps
$end

$scope module Absolute_vlg_vec_tst $end
$var reg 4 ! Ain [3:0] $end
$var reg 4 " Bin [3:0] $end
$var reg 1 # CLK $end
$var wire 1 $ Output [3] $end
$var wire 1 % Output [2] $end
$var wire 1 & Output [1] $end
$var wire 1 ' Output [0] $end

$scope module i1 $end
$var wire 1 ( gnd $end
$var wire 1 ) vcc $end
$var wire 1 * unknown $end
$var tri1 1 + devclrn $end
$var tri1 1 , devpor $end
$var tri1 1 - devoe $end
$var wire 1 . ~QUARTUS_CREATED_GND~I_combout $end
$var wire 1 / CLK~input_o $end
$var wire 1 0 CLK~inputCLKENA0_outclk $end
$var wire 1 1 Bin[0]~input_o $end
$var wire 1 2 Bin[3]~input_o $end
$var wire 1 3 Ain[2]~input_o $end
$var wire 1 4 Bin[2]~input_o $end
$var wire 1 5 Ain[3]~input_o $end
$var wire 1 6 Ain[0]~input_o $end
$var wire 1 7 Bin[1]~input_o $end
$var wire 1 8 Ain[1]~input_o $end
$var wire 1 9 step~9_combout $end
$var wire 1 : step.01~q $end
$var wire 1 ; Output~1_combout $end
$var wire 1 < step.00~q $end
$var wire 1 = step.01~0_combout $end
$var wire 1 > step.01~DUPLICATE_q $end
$var wire 1 ? step~10_combout $end
$var wire 1 @ step.10~q $end
$var wire 1 A Add0~18_cout $end
$var wire 1 B Add0~1_sumout $end
$var wire 1 C Output[0]~reg0_q $end
$var wire 1 D Add0~2 $end
$var wire 1 E Add0~5_sumout $end
$var wire 1 F Output[1]~reg0_q $end
$var wire 1 G Add0~6 $end
$var wire 1 H Add0~9_sumout $end
$var wire 1 I Output[2]~reg0_q $end
$var wire 1 J Add0~10 $end
$var wire 1 K Add0~13_sumout $end
$var wire 1 L Output[3]~reg0_q $end
$upscope $end
$upscope $end
$enddefinitions $end
#0
$dumpvars
b1001 !
b1011 "
0#
0'
0&
0%
0$
0(
1)
x*
1+
1,
1-
0.
0/
00
11
12
03
04
15
16
17
08
09
0:
1;
0<
1=
0>
0?
0@
1A
0B
0C
1D
1E
0F
1G
0H
0I
1J
0K
0L
$end
#5000
1#
1/
10
1>
1<
1:
0=
#10000
0#
0/
00
#15000
1#
1/
10
0>
0:
0;
#20000
0#
0/
00
#25000
1#
1/
10
0<
1F
1&
1;
1=
#30000
b1111 "
b1110 "
0#
01
14
0/
00
0D
1H
1B
0E
#35000
1#
1/
10
1>
1<
1:
0=
#40000
0#
0/
00
#45000
1#
1/
10
0>
0:
0;
#50000
0#
0/
00
#55000
1#
1/
10
0<
1I
0F
1C
1'
0&
1%
1;
1=
#60000
b1 !
b101 !
b110 "
b100 "
b0 "
0#
07
04
02
13
05
0/
00
0J
0G
19
1E
1K
0H
#65000
1#
1/
10
1>
1<
1:
0=
1?
#70000
0#
0/
00
#75000
1#
1/
10
1@
0>
0:
0;
1J
1D
0?
1G
0K
0E
1H
#80000
0#
0/
00
#85000
1#
1/
10
0@
0<
1;
0J
0D
1=
0G
1K
1E
0H
#90000
b100 !
b1 "
b1100 !
b101 "
0#
11
14
06
15
0/
00
1D
09
0K
1H
1G
0E
1J
0H
1K
#95000
1#
1/
10
1>
1<
1:
0=
1?
#100000
0#
0/
00
#105000
1#
1/
10
1@
0>
0:
0;
0D
0?
0G
1E
0J
1H
0K
#110000
0#
0/
00
#115000
1#
1/
10
0@
0<
1F
1&
1;
1D
1=
1G
0E
1J
0H
1K
#120000
b1110 !
b1101 "
b1111 "
b1111 !
b1011 "
0#
17
04
12
16
18
0/
00
0J
0B
0K
1H
1K
#125000
1#
1/
10
1>
1<
1:
0=
1?
#130000
0#
0/
00
#135000
1#
1/
10
1@
0>
0:
0;
1J
0?
0K
#140000
0#
0/
00
#145000
1#
1/
10
0@
0<
0F
0C
0'
0&
1;
0J
1=
1K
#150000
b1010 "
b10 "
b1110 !
b110 "
0#
06
01
14
02
0/
00
1J
0K
0H
1K
#155000
1#
1/
10
1>
1<
1:
0=
1?
#160000
0#
0/
00
#165000
1#
1/
10
1@
0>
0:
0;
0?
#170000
0#
0/
00
#175000
1#
1/
10
0@
0<
1L
0I
0%
1$
1;
1=
#180000
b111 "
b1111 !
0#
16
11
0/
00
#185000
1#
1/
10
1>
1<
1:
0=
1?
#190000
0#
0/
00
#195000
1#
1/
10
1@
0>
0:
0;
0?
#200000
0#
0/
00
#205000
1#
1/
10
0@
0<
1;
1=
#210000
b111 !
b101 "
b1 "
b110 !
0#
07
04
06
05
0/
00
19
0J
0G
0K
1B
1H
1E
1K
0H
#215000
1#
1/
10
1>
1<
1:
0=
1?
#220000
0#
0/
00
#225000
1#
1/
10
1@
0>
0:
0;
1J
1G
0D
0?
0K
1H
0E
#230000
0#
0/
00
#235000
1#
1/
10
0@
0<
0L
1I
1C
1'
1%
0$
1;
0J
0G
1D
1=
1K
0H
1E
#240000
b1001 "
b1011 "
b111 !
0#
16
17
12
0/
00
1G
09
0K
0E
0B
1H
#245000
1#
1/
10
1>
1<
1:
0=
#250000
0#
0/
00
#255000
1#
1/
10
0>
0:
0;
#260000
0#
0/
00
#265000
1#
1/
10
0<
0C
0'
1;
1=
#270000
b101 !
b1101 !
b1111 "
b111 "
0#
14
02
08
15
0/
00
1J
1E
0H
1K
#275000
1#
1/
10
1>
1<
1:
0=
1?
#280000
0#
0/
00
#285000
1#
1/
10
1@
0>
0:
0;
0G
0?
0J
1H
0K
#290000
0#
0/
00
#295000
1#
1/
10
0@
0<
1F
1&
1;
1G
1=
1J
0H
1K
#300000
b1001 !
b101 "
b1011 !
b11 !
b1101 "
0#
07
12
18
03
05
0/
00
0G
19
1H
0H
#305000
1#
1/
10
1>
1<
1:
0=
#310000
0#
0/
00
#315000
1#
1/
10
0>
0:
0;
#320000
0#
0/
00
#325000
1#
1/
10
0<
1L
0I
0%
1$
1;
1=
#330000
b111 !
b101 !
b101 "
0#
02
08
13
0/
00
0J
1G
09
1H
0E
0K
1J
1K
0H
0K
#335000
1#
1/
10
1>
1<
1:
0=
#340000
0#
0/
00
#345000
1#
1/
10
0>
0:
0;
#350000
0#
0/
00
#355000
1#
1/
10
0<
0L
0F
0&
0$
1;
1=
#360000
b100 !
b1 "
0#
04
06
0/
00
0J
1B
1H
1K
#365000
1#
1/
10
1>
1<
1:
0=
1?
#370000
0#
0/
00
#375000
1#
1/
10
1@
0>
0:
0;
1J
0D
0?
0G
0K
1E
0H
#380000
0#
0/
00
#385000
1#
1/
10
0@
0<
1F
1C
1'
1&
1;
0J
1D
1=
1G
1K
0E
1H
#390000
b0 !
b10 !
b11 !
b101 "
0#
14
16
18
03
0/
00
1J
0G
19
1E
0B
0K
0H
#395000
1#
1/
10
1>
1<
1:
0=
#400000
0#
0/
00
#405000
1#
1/
10
0>
0:
0;
#410000
0#
0/
00
#415000
1#
1/
10
0<
0C
0'
1;
1=
#420000
b100 "
b110 "
b1011 !
b1010 !
b10 "
0#
06
15
01
17
04
0/
00
0J
1G
09
1H
0E
1K
1J
0K
0H
1K
#425000
1#
1/
10
1>
1<
1:
0=
1?
#430000
0#
0/
00
#435000
1#
1/
10
1@
0>
0:
0;
0?
#440000
0#
0/
00
#445000
1#
1/
10
0@
0<
1L
0F
0&
1$
1;
1=
#450000
b1010 "
b1000 "
b1011 !
b1100 "
0#
16
07
14
12
0/
00
0G
19
0D
0K
1H
1E
1B
0H
0E
#455000
1#
1/
10
1>
1<
1:
0=
#460000
0#
0/
00
#465000
1#
1/
10
0>
0:
0;
#470000
0#
0/
00
#475000
1#
1/
10
0<
0L
1C
1'
0$
1;
1=
#480000
b1111 !
b1101 "
b101 "
b1110 !
0#
11
02
06
13
0/
00
0J
1D
1H
1K
0K
1E
#485000
1#
1/
10
1>
1<
1:
0=
1?
#490000
0#
0/
00
#495000
1#
1/
10
1@
0>
0:
0;
1G
0D
0?
1J
0H
0E
1K
#500000
0#
0/
00
#505000
1#
1/
10
0@
0<
1L
1$
1;
0G
1D
1=
0J
1H
1E
0K
#510000
b1100 !
b100 !
b111 "
b0 !
0#
17
08
03
05
0/
00
1J
1G
09
1K
0H
0K
1H
#515000
1#
1/
10
1>
1<
1:
0=
#520000
0#
0/
00
#525000
1#
1/
10
0>
0:
0;
#530000
0#
0/
00
#535000
1#
1/
10
0<
0L
1I
1F
1&
1%
0$
1;
1=
#540000
b11 "
b10 "
b0 "
b100 !
0#
13
01
07
04
0/
00
0J
0E
0B
1K
#545000
1#
1/
10
1>
1<
1:
0=
1?
#550000
0#
0/
00
#555000
1#
1/
10
1@
0>
0:
0;
1J
0?
0K
#560000
0#
0/
00
#565000
1#
1/
10
0@
0<
0F
0C
0'
0&
1;
0J
1=
1K
#570000
b1000 "
b101 !
0#
16
12
0/
00
0D
19
0K
1B
0G
1E
0H
#575000
1#
1/
10
1>
1<
1:
0=
#580000
0#
0/
00
#585000
1#
1/
10
0>
0:
0;
#590000
0#
0/
00
#595000
1#
1/
10
0<
0I
1F
1C
1'
1&
0%
1;
1=
#600000
b111 !
b1001 "
b1011 "
b11 !
b10 !
0#
11
17
06
18
03
0/
00
09
1D
1H
1G
0E
1J
0H
1K
#605000
1#
1/
10
1>
1<
1:
0=
#610000
0#
0/
00
#615000
1#
1/
10
0>
0:
0;
#620000
0#
0/
00
#625000
1#
1/
10
0<
1L
0F
0&
1$
1;
1=
#630000
b11 "
b0 !
b1 "
b100 !
0#
08
13
07
02
0/
00
0J
0K
1H
1K
#635000
1#
1/
10
1>
1<
1:
0=
1?
#640000
0#
0/
00
#645000
1#
1/
10
1@
0>
0:
0;
1J
0D
0?
0G
0K
1E
0H
#650000
0#
0/
00
#655000
1#
1/
10
0@
0<
0L
1F
1&
0$
1;
0J
1D
1=
1G
1K
0E
1H
#660000
b1100 !
b0 "
b1101 !
b1000 "
0#
01
12
16
15
0/
00
0D
19
0G
1E
0H
#665000
1#
1/
10
1>
1<
1:
0=
1?
#670000
0#
0/
00
#675000
1#
1/
10
1@
0>
0:
0;
1J
1D
0?
1G
0K
0E
1H
#680000
0#
0/
00
#685000
1#
1/
10
0@
0<
1I
0F
0&
1%
1;
0J
0D
1=
0G
1K
1E
0H
#690000
b1100 "
b1110 "
b1100 !
b110 "
0#
06
17
14
02
0/
00
1G
09
1D
0K
1H
0E
0B
1J
0H
1E
1K
#695000
1#
1/
10
1>
1<
1:
0=
1?
#700000
0#
0/
00
#705000
1#
1/
10
1@
0>
0:
0;
0G
0?
0J
1H
0K
#710000
0#
0/
00
#715000
1#
1/
10
0@
0<
1F
0C
0'
1&
1;
1G
1=
1J
0H
1K
#720000
b1000 !
b100 "
0#
07
03
0/
00
1H
0E
#725000
1#
1/
10
1>
1<
1:
0=
1?
#730000
0#
0/
00
#735000
1#
1/
10
1@
0>
0:
0;
0J
0?
0K
#740000
0#
0/
00
#745000
1#
1/
10
0@
0<
0F
0&
1;
1J
1=
1K
#750000
b1010 !
b0 "
b1110 !
b10 "
0#
17
04
18
13
0/
00
0J
0K
#755000
1#
1/
10
1>
1<
1:
0=
1?
#760000
0#
0/
00
#765000
1#
1/
10
1@
0>
0:
0;
1J
0?
1K
#770000
0#
0/
00
#775000
1#
1/
10
0@
0<
1L
1$
1;
0J
1=
0K
#780000
b110 !
b111 !
b1010 "
b1110 "
b11 !
b1100 "
0#
07
14
12
16
03
05
0/
00
1J
0D
19
0G
1B
1E
1K
0E
0H
#785000
1#
1/
10
1>
1<
1:
0=
#790000
0#
0/
00
#795000
1#
1/
10
0>
0:
0;
#800000
0#
0/
00
#805000
1#
1/
10
0<
0I
1C
1'
0%
1;
1=
#810000
b1101 "
b1011 !
b1010 !
b101 "
0#
06
15
11
02
0/
00
1D
1E
#815000
1#
1/
10
1>
1<
1:
0=
1?
#820000
0#
0/
00
#825000
1#
1/
10
1@
0>
0:
0;
0J
1G
0D
0?
0K
1H
0E
#830000
0#
0/
00
#835000
1#
1/
10
0@
0<
0L
1I
1%
0$
1;
1J
0G
1D
1=
1K
0H
1E
#840000
b1110 !
b111 "
b1111 !
b1111 "
0#
17
12
16
13
0/
00
0J
09
1G
1H
0B
0K
0E
1J
1K
0H
0K
#845000
1#
1/
10
1>
1<
1:
0=
#850000
0#
0/
00
#855000
1#
1/
10
0>
0:
0;
#860000
0#
0/
00
#865000
1#
1/
10
0<
0I
0C
0'
0%
1;
1=
#870000
b1101 !
b1110 "
b101 !
b1100 "
b100 !
0#
01
07
06
08
05
0/
00
1K
#875000
1#
1/
10
1>
1<
1:
0=
#880000
0#
0/
00
#885000
1#
1/
10
0>
0:
0;
#890000
0#
0/
00
#895000
1#
1/
10
0<
1L
1$
1;
1=
#900000
b1100 !
b1101 !
0#
16
15
0/
00
0D
19
0K
1B
0G
1E
0J
1H
1K
#905000
1#
1/
10
1>
1<
1:
0=
1?
#910000
0#
0/
00
#915000
1#
1/
10
1@
0>
0:
0;
1D
0?
1G
0E
1J
0H
0K
#920000
0#
0/
00
#925000
1#
1/
10
0@
0<
0L
1C
1'
0$
1;
0D
1=
0G
1E
0J
1H
1K
#930000
b1000 "
b1001 !
b1011 !
b11 !
0#
18
03
05
04
0/
00
0K
0E
#935000
1#
1/
10
1>
1<
1:
0=
#940000
0#
0/
00
#945000
1#
1/
10
0>
0:
0;
#950000
0#
0/
00
#955000
1#
1/
10
0<
1I
1%
1;
1=
#960000
b0 "
b10 "
b111 !
b101 !
b1101 !
0#
08
13
15
17
02
0/
00
1G
09
0H
1H
#965000
1#
1/
10
1>
1<
1:
0=
1?
#970000
0#
0/
00
#975000
1#
1/
10
1@
0>
0:
0;
1J
0G
1D
0?
1K
0H
1E
#980000
0#
0/
00
#985000
1#
1/
10
0@
0<
1L
0I
1F
1&
0%
1$
1;
0J
1G
0D
1=
0K
1H
0E
#990000
b11 "
b1011 "
b1001 !
b1011 !
b11 !
0#
18
03
05
11
12
0/
00
1D
1J
0G
0B
0H
1E
1G
0J
0E
1K
1H
1J
0H
0K
1K
#995000
1#
1/
10
1>
1<
1:
0=
