4-bit counter with four different models/simulation/qsim/CO_Counter.msim.vcd
$comment
	File created using the following command:
		vcd file CO_Counter.msim.vcd -direction
$end
$date
	Thu Oct 27 10:19:13 2022
$end
$version
	ModelSim Version 2020.1
$end
$timescale
	1ps
$end

$scope module CO_Counter_vlg_vec_tst $end
$var reg 1 ! CLK $end
$var reg 1 " EN $end
$var reg 1 # In0 $end
$var reg 1 $ In1 $end
$var reg 1 % In2 $end
$var reg 1 & In3 $end
$var reg 1 ' S0 $end
$var reg 1 ( S1 $end
$var wire 1 ) cout_down $end
$var wire 1 * pin_name1 $end
$var wire 1 + pin_name2 $end
$var wire 1 , pin_name3 $end
$var wire 1 - pin_name4 $end

$scope module i1 $end
$var wire 1 . gnd $end
$var wire 1 / vcc $end
$var wire 1 0 unknown $end
$var tri1 1 1 devclrn $end
$var tri1 1 2 devpor $end
$var tri1 1 3 devoe $end
$var wire 1 4 ~QUARTUS_CREATED_GND~I_combout $end
$var wire 1 5 EN~input_o $end
$var wire 1 6 CLK~input_o $end
$var wire 1 7 CLK~inputCLKENA0_outclk $end
$var wire 1 8 In0~input_o $end
$var wire 1 9 S1~input_o $end
$var wire 1 : S0~input_o $end
$var wire 1 ; inst4|6~0_combout $end
$var wire 1 < ins~q $end
$var wire 1 = In1~input_o $end
$var wire 1 > inst5|6~combout $end
$var wire 1 ? ins1~q $end
$var wire 1 @ inst6|6~0_combout $end
$var wire 1 A In2~input_o $end
$var wire 1 B inst17~0_combout $end
$var wire 1 C inst6|6~1_combout $end
$var wire 1 D ins2~q $end
$var wire 1 E In3~input_o $end
$var wire 1 F inst7|6~0_combout $end
$var wire 1 G ins3~q $end
$var wire 1 H inst22~combout $end
$upscope $end
$upscope $end
$enddefinitions $end
#0
$dumpvars
0!
1"
1#
0$
0%
1&
1'
0(
0)
0*
0+
0,
0-
0.
1/
x0
11
12
13
04
15
06
07
18
09
1:
1;
0<
0=
0>
0?
1@
0A
0B
0C
0D
1E
0F
0G
0H
$end
#5000
1!
0&
1$
16
0E
1=
17
1<
1*
0@
1>
0;
#10000
1%
0#
1(
0!
1&
0$
1A
08
19
06
1E
0=
07
0>
1F
1C
#15000
1#
1!
0&
1$
18
16
0E
1=
17
1>
0F
1;
1G
1D
0<
0*
1,
1-
1@
#20000
0'
0%
0(
0#
0!
0:
0A
09
08
06
07
0;
1F
0>
#25000
1&
0$
1%
1#
1!
1E
0=
1A
18
16
17
#30000
1'
0!
1:
06
07
1;
#35000
0&
1!
0E
16
17
1<
1*
0@
1>
0;
#40000
1$
0%
0#
0!
1=
0A
08
06
07
#45000
0$
1%
1#
1!
0=
1A
18
16
17
1?
0<
0*
1+
1;
#50000
1(
1&
1$
0%
0!
19
1E
1=
0A
06
07
0C
#55000
0#
0&
1%
1!
08
0E
1A
16
17
1C
0F
0;
0D
1<
1*
0,
1B
#60000
0'
0$
1#
0%
0!
0:
0=
18
0A
06
07
0C
1F
#65000
1&
1$
1%
1!
1E
1=
1A
16
17
0<
0*
0B
0>
1;
#70000
0(
0#
0&
0!
09
08
0E
06
07
0;
1>
#75000
0$
1#
1!
0=
18
16
17
#80000
1'
1&
0#
0!
1:
1E
08
06
07
1;
#85000
1!
16
17
1<
1*
1B
0>
0;
1C
#90000
1(
0'
0&
0!
19
0:
0E
06
07
0C
1>
#95000
0%
1!
0A
16
17
0<
0*
0B
0>
1;
#100000
1#
1&
1%
0!
18
1E
1A
06
07
#105000
0#
1!
08
16
17
0?
1<
1*
0+
0;
#110000
0&
0%
1#
0!
0E
0A
18
06
07
#115000
1&
1!
1E
16
17
0<
0*
1@
1>
1;
0F
1C
#120000
1%
0#
0!
1A
08
06
07
#125000
0&
1#
1!
0E
18
16
17
0G
1D
1?
1<
1*
1+
1,
0-
1B
0@
0;
0C
1C
#130000
1$
0#
0!
1=
08
06
07
#135000
0%
1&
1#
1!
0A
1E
18
16
17
0<
0*
0B
0>
1;
#140000
1'
0$
1%
0!
1:
0=
1A
06
07
1F
#145000
0#
0%
1!
08
0A
16
17
0C
0;
1G
0?
1<
1*
0+
1-
#150000
1%
0!
1A
06
07
1C
#155000
1$
1#
1!
1=
18
16
17
1;
1>
0<
0*
1@
#160000
0&
0'
0%
0$
0!
0E
0:
0A
0=
06
07
0C
#165000
1%
1$
1!
1A
1=
16
17
0D
1?
1<
1*
1+
0,
1B
0@
0;
0F
1C
1F
0C
#170000
0#
0!
08
06
07
#175000
0$
1!
0=
16
17
0<
0*
0B
0>
1;
#180000
1&
1#
1$
0!
1E
18
1=
06
07
#185000
0%
1!
0A
16
17
0?
1<
1*
0+
0;
#190000
0(
1'
0&
0!
09
1:
0E
06
07
1>
#195000
1%
1!
1A
16
17
1?
0<
0*
1+
1;
#200000
0!
06
07
#205000
0$
1&
1!
0=
1E
16
17
1<
1*
1B
0>
0;
1C
#210000
0#
0'
1$
0!
08
0:
1=
06
07
1>
0C
1;
#215000
0%
0&
1#
0$
1!
0A
0E
18
0=
16
17
#220000
1(
1'
1%
0!
19
1:
1A
06
07
1C
0F
0>
#225000
1$
0%
1!
1=
0A
16
17
0C
1>
0G
1D
0?
0+
1,
0-
0B
#230000
0'
1%
0!
0:
1A
06
07
1C
0>
0;
#235000
1&
1!
1E
16
17
0<
0*
1@
1>
1;
0C
#240000
0(
0$
0%
0!
09
0=
0A
06
07
1C
0>
0;
#245000
0#
0&
1!
08
0E
16
17
#250000
1#
0!
18
06
07
#255000
1%
0#
1!
1A
08
16
17
#260000
1'
1$
1&
0%
0!
1:
1=
1E
0A
06
07
1;
#265000
1#
0$
1%
1!
18
0=
1A
16
17
1<
1*
0@
1>
0;
#270000
0'
1$
0!
0:
1=
06
07
0>
1;
#275000
0%
0$
1!
0A
0=
16
17
#280000
1(
0&
1'
1%
1$
0!
19
0E
1:
1A
1=
06
07
1>
#285000
0#
0%
0$
1!
08
0A
0=
16
17
0>
0C
0;
1?
1+
1B
#290000
1&
1#
0!
1E
18
06
07
1;
1F
#295000
1$
1!
1=
16
17
1>
1G
0D
0?
0+
0,
1-
0B
#300000
0(
1%
0&
0#
0$
0!
09
1A
0E
08
0=
06
07
0;
#305000
1#
1!
18
16
17
1?
0<
0*
1+
1;
#310000
0%
1&
0!
0A
1E
06
07
#315000
1%
1!
1A
16
17
1<
1*
1B
0>
0;
1C
#320000
0#
0&
0%
0!
08
0E
0A
06
07
#325000
1%
1!
1A
16
17
1D
0?
0<
0*
0+
1,
0B
1@
1;
0F
0C
1F
1C
#330000
0'
1(
1$
1&
0!
0:
19
1=
1E
06
07
1>
0C
#335000
1#
0$
0&
1!
18
0=
0E
16
17
0D
1?
1<
1*
1+
0,
1B
0@
0;
0F
1C
1F
0C
#340000
1'
0#
1$
0!
1:
08
1=
06
07
0F
1C
#345000
1#
0$
1!
18
0=
16
17
0>
1;
0G
1D
0<
0*
1,
0-
0B
#350000
0%
0(
1&
0#
0!
0A
09
1E
08
06
07
1>
#355000
0&
1#
1!
0E
18
16
17
1<
1*
1B
0>
0;
1F
0C
#360000
1$
0!
1=
06
07
#365000
0#
0$
1!
08
0=
16
17
1G
0D
0?
0<
0*
0+
0,
1-
0B
1@
1;
1C
0C
#370000
1%
1$
0!
1A
1=
06
07
#375000
1!
16
17
1<
1*
0@
1>
0;
#380000
0'
1(
1&
0%
0$
0!
0:
19
1E
0A
0=
06
07
0>
#385000
0&
1$
1!
0E
1=
16
17
0<
0*
1@
1>
1;
0F
1C
#390000
1'
1%
0$
0!
1:
1A
0=
06
07
0>
0;
#395000
1#
0%
1$
1!
18
0A
1=
16
17
1>
0C
1;
0G
1D
1,
0-
#400000
0(
1&
0'
0#
1%
0!
09
1E
0:
08
1A
06
07
1C
0;
0>
#405000
0$
0%
1!
0=
0A
16
17
#410000
1(
0&
1'
0!
19
0E
1:
06
07
0C
#415000
1#
1$
1%
1&
1!
18
1=
1A
1E
16
17
1F
1C
1>
1;
0D
0,
#420000
0$
0!
0=
06
07
0>
#425000
0&
1!
0E
16
17
0F
1G
1D
1<
1*
1,
1-
0@
#430000
0'
0#
0%
0!
0:
08
0A
06
07
0;
1F
#435000
1$
1!
1=
16
17
0<
0*
1@
1>
1;
0C
#440000
0(
1&
1#
0!
09
1E
18
06
07
0;
1C
0>
#445000
1%
0$
0&
0#
1!
1A
0=
0E
08
16
17
#450000
1(
0%
1$
1&
0!
19
0A
1=
1E
06
07
1>
0C
1;
#455000
1#
0$
1!
18
0=
16
17
0D
1?
1<
1*
1+
0,
1B
0@
0;
0F
1C
1F
0C
#460000
1'
0(
1%
0&
0#
0!
1:
09
1A
0E
08
06
07
1C
0>
#465000
1$
0%
1!
1=
0A
16
17
1D
0?
0<
0*
0+
1,
0B
1@
1;
0F
0C
1F
1C
#470000
0'
1(
0$
0!
0:
19
0=
06
07
1>
0C
#475000
1%
1$
1!
1A
1=
16
17
0D
1?
1<
1*
1+
0,
1B
0@
0;
0F
1C
1F
0C
#480000
1&
1'
0%
0!
1E
1:
0A
06
07
#485000
1%
1!
1A
16
17
1C
0<
0*
0B
#490000
1#
0!
18
06
07
1;
#495000
0&
0%
1!
0E
0A
16
17
0C
0F
1D
1<
1*
1,
1B
1H
1)
#500000
1&
0!
1E
06
07
1F
#505000
0$
0&
1!
0=
0E
16
17
0F
0>
0D
0,
0H
0)
#510000
0(
0'
0!
09
0:
06
07
1F
1>
#515000
0#
1$
1!
08
1=
16
17
#520000
1&
1'
1#
0$
0!
1E
1:
18
0=
06
07
0>
0;
1C
#525000
1%
1$
1!
1A
1=
16
17
1D
0?
0<
0*
0+
1,
0B
1@
1;
0F
0C
1F
1C
#530000
0$
0!
0=
06
07
#535000
0&
1!
0E
16
17
1<
1*
0@
1>
0;
#540000
0%
1&
0!
0A
1E
06
07
#545000
1$
0&
1!
1=
0E
16
17
1?
0<
0*
1+
1;
#550000
0!
06
07
#555000
0$
1&
1!
0=
1E
16
17
1<
1*
1B
1H
0>
0;
1)
0F
0C
#560000
1(
0'
0!
19
0:
06
07
1F
1C
1>
#565000
1!
16
17
0<
0*
0B
0H
0>
1;
0)
#570000
1%
0&
0!
1A
0E
06
07
#575000
0#
1$
1!
08
1=
16
17
0?
1<
1*
0+
0;
#580000
0(
1'
0%
1&
0$
0!
09
1:
0A
1E
0=
06
07
1>
#585000
0&
1$
1!
0E
1=
16
17
1?
0<
0*
1+
1;
#590000
1#
1(
0'
1%
0$
0!
18
19
0:
1A
0=
06
07
0>
#595000
1&
0%
1$
1!
1E
0A
1=
16
17
0?
1<
1*
0+
0;
#600000
0#
1'
0&
1%
0!
08
1:
0E
1A
06
07
0F
1>
#605000
0$
1&
1!
0=
1E
16
17
1F
0>
0G
1?
0<
0*
1+
0-
#610000
0(
1#
0'
0%
1$
0!
09
18
0:
0A
1=
06
07
1>
0F
#615000
1!
16
17
#620000
0&
1%
0!
0E
1A
06
07
#625000
0#
0$
1!
08
0=
16
17
#630000
1(
0!
19
06
07
0>
1;
#635000
1#
1!
18
16
17
0?
1<
1*
0+
0;
#640000
1&
0%
1$
0!
1E
0A
1=
06
07
#645000
0#
0&
1%
0$
1!
08
0E
1A
0=
16
17
0<
0*
1@
1>
1;
0C
#650000
1&
0!
1E
06
07
#655000
1$
1!
1=
16
17
0D
1?
1<
1*
1+
0,
1B
0@
0;
1F
1C
0F
0C
#660000
1'
1#
0%
0&
0$
0!
1:
18
0A
0E
0=
06
07
0>
1;
#665000
0#
1!
08
16
17
0;
0?
0+
0B
#670000
1%
1$
0!
1A
1=
06
07
1>
1C
#675000
1&
1#
0$
1!
1E
18
0=
16
17
0>
1;
1F
1D
1?
0<
0*
1+
1,
#680000
0(
0%
0&
0#
0!
09
0A
0E
08
06
07
0F
1>
#685000
1$
1&
1!
1=
1E
16
17
1<
1*
1B
0>
0;
1F
0C
#690000
0'
1#
0!
0:
18
06
07
1;
0F
1C
1>
#695000
0&
0#
1!
0E
08
16
17
#700000
1%
1'
1&
1#
0!
1A
1:
1E
18
06
07
0;
1F
0C
0>
#705000
0$
0#
1!
0=
08
16
17
1G
0D
0?
0<
0*
0+
0,
1-
0B
1@
1;
1C
0C
#710000
1(
0%
0'
1$
1#
0!
19
0A
0:
1=
18
06
07
1>
0F
1C
#715000
0&
1%
0$
0#
1!
0E
1A
0=
08
16
17
0G
1D
1?
1<
1*
1+
1,
0-
1B
0@
0;
0C
1C
#720000
1&
1$
0!
1E
1=
06
07
#725000
0$
1!
0=
16
17
0<
0*
0B
0>
1;
#730000
0(
1'
0%
0!
09
1:
0A
06
07
1>
#735000
1#
1!
18
16
17
1<
1*
1B
0>
0;
1F
0C
#740000
1$
0'
1%
0#
0!
1=
0:
1A
08
06
07
1;
1C
0F
1>
#745000
0&
1!
0E
16
17
#750000
1'
1#
0!
1:
18
06
07
0;
1F
0C
0>
#755000
0$
0%
0#
1!
0=
0A
08
16
17
1G
0D
0?
0<
0*
0+
0,
1-
0B
1@
1;
1C
0C
#760000
1%
0!
1A
06
07
#765000
1&
1$
1#
1!
1E
1=
18
16
17
1<
1*
0@
1>
0;
#770000
0%
0$
0!
0A
0=
06
07
#775000
1%
1!
1A
16
17
1?
0<
0*
1+
1;
#780000
1(
0'
0&
1$
0%
0!
19
0:
0E
1=
0A
06
07
0>
#785000
0#
1&
0$
1!
08
1E
0=
16
17
0?
1<
1*
0+
0;
#790000
1%
0&
1$
0!
1A
0E
1=
06
07
#795000
1!
16
17
0<
0*
1@
1>
1;
0F
1C
#800000
0(
1'
1#
0$
0!
09
1:
18
0=
06
07
0>
1F
0C
#805000
0%
1&
0#
1!
0A
1E
08
16
17
1<
1*
0@
1>
0;
#810000
1(
1%
0&
1#
0!
19
1A
0E
18
06
07
1;
0F
1C
0>
#815000
1$
1&
1!
1=
1E
16
17
1F
1>
0G
1D
1,
0-
#820000
0'
0!
0:
06
07
0F
0>
0;
#825000
0#
1!
08
16
17
0<
0*
1@
1>
1;
0C
#830000
0%
0&
0!
0A
0E
06
07
#835000
1%
1&
1!
1A
1E
16
17
0D
1?
1<
1*
1+
0,
1B
0@
0;
1F
1C
0F
0C
#840000
0(
0&
0!
09
0E
06
07
1;
#845000
0$
1&
1!
0=
1E
16
17
#850000
1'
1#
0%
1(
1$
0!
1:
18
0A
19
1=
06
07
1F
#855000
0&
1%
0$
1!
0E
1A
0=
16
17
0>
1C
0F
1G
1-
#860000
0'
0#
1$
0!
0:
08
1=
06
07
1>
0;
1F
0C
#865000
0%
1#
0$
1!
0A
18
0=
16
17
0<
0*
0B
0>
1;
#870000
1$
0!
1=
06
07
#875000
1%
1!
1A
16
17
0?
1<
1*
0+
0;
#880000
0(
0$
0!
09
0=
06
07
1;
#885000
0#
0%
1!
08
0A
16
17
#890000
1(
1#
1%
0!
19
18
1A
06
07
0;
#895000
1$
1!
1=
16
17
0<
0*
1@
1>
1;
0F
1C
#900000
1'
0#
0%
0!
1:
08
0A
06
07
0C
0;
#905000
1#
1%
1!
18
1A
16
17
1C
1;
0G
1?
1+
0-
0@
#910000
0$
0#
0!
0=
08
06
07
0;
0>
#915000
1!
16
17
1D
0?
0+
1,
1@
#920000
1&
0'
1$
1#
0!
1E
0:
1=
18
06
07
1;
1>
0C
#925000
0&
0#
1!
0E
08
16
17
0D
1?
1<
1*
1+
0,
1B
0@
0;
1F
1C
0F
0C
#930000
0(
0%
1'
0$
1&
1#
0!
09
0A
1:
0=
1E
18
06
07
0>
1C
#935000
1%
1$
0&
1!
1A
1=
0E
16
17
1D
0?
0<
0*
0+
1,
0B
1@
1;
1F
0C
0F
1C
#940000
0$
1&
0!
0=
1E
06
07
#945000
0%
1$
1!
0A
1=
16
17
1<
1*
0@
1>
0;
#950000
0'
0#
0&
1%
0$
0!
0:
08
0E
1A
0=
06
07
0>
1;
#955000
1!
16
17
#960000
1(
1#
1&
0%
0!
19
18
1E
0A
06
07
0;
#965000
1!
16
17
0<
0*
1@
1>
1;
0C
#970000
1'
0(
0#
0&
1%
0!
1:
09
08
0E
1A
06
07
1C
0>
#975000
1$
1#
1&
0%
1!
1=
18
1E
0A
16
17
1<
1*
0@
1>
0;
#980000
0'
0$
0#
1%
0!
0:
0=
08
1A
06
07
1;
0>
#985000
0&
0%
1!
0E
0A
16
17
#990000
1$
1&
1%
0!
1=
1E
1A
06
07
#995000
1#
0$
1!
18
0=
16
17
