Task0930/simulation/qsim/Task0930.msim.vcd
$comment
	File created using the following command:
		vcd file Task0930.msim.vcd -direction
$end
$date
	Fri Oct 07 23:13:04 2022
$end
$version
	ModelSim Version 2020.1
$end
$timescale
	1ps
$end

$scope module Task0930_vlg_vec_tst $end
$var reg 1 ! clk $end
$var reg 1 " X $end
$var wire 1 # pin_name1 $end
$var wire 1 $ pin_name2 $end
$var wire 1 % Y $end

$scope module i1 $end
$var wire 1 & gnd $end
$var wire 1 ' vcc $end
$var wire 1 ( unknown $end
$var tri1 1 ) devclrn $end
$var tri1 1 * devpor $end
$var tri1 1 + devoe $end
$var wire 1 , ~QUARTUS_CREATED_GND~I_combout $end
$var wire 1 - clk~input_o $end
$var wire 1 . clk~inputCLKENA0_outclk $end
$var wire 1 / X~input_o $end
$var wire 1 0 DB_Flipflop~q $end
$var wire 1 1 inst3~0_combout $end
$var wire 1 2 DA_Flipflop~q $end
$var wire 1 3 inst2~combout $end
$upscope $end
$upscope $end
$enddefinitions $end
#0
$dumpvars
0!
0"
0#
0$
0%
0&
1'
x(
1)
1*
1+
0,
0-
0.
0/
00
01
02
03
$end
#5000
1"
1/
#10000
1!
1-
1.
10
1#
11
#20000
0!
0-
0.
#30000
1!
1-
1.
12
1$
#35000
0"
0/
#40000
0!
1"
0-
1/
0.
#50000
1!
1-
1.
#55000
0"
0/
#60000
0!
1"
0-
1/
0.
#65000
0"
0/
#70000
1!
1-
1.
00
0#
01
#80000
0!
0-
0.
#85000
1"
1/
13
1%
#90000
1!
1-
1.
02
10
1#
0$
03
11
0%
#100000
0!
0-
0.
#110000
0"
1!
0/
1-
1.
01
12
00
0#
1$
#115000
1"
1/
13
1%
#120000
0!
0-
0.
#125000
0"
0/
03
0%
#130000
1!
1"
1-
1/
1.
13
1%
02
10
1#
0$
03
11
0%
#140000
0!
0-
0.
#150000
1!
1-
1.
12
1$
#155000
0"
0/
#160000
0!
1"
0-
1/
0.
#165000
0"
0/
#170000
1!
1"
1-
1/
1.
#180000
0!
0"
0-
0/
0.
#190000
1!
1"
1-
1/
1.
#200000
0!
0-
0.
#210000
0"
1!
0/
1-
1.
00
0#
01
#215000
1"
1/
13
1%
#220000
0!
0-
0.
#225000
0"
0/
03
0%
#230000
1!
1-
1.
02
0$
#240000
0!
0-
0.
#245000
1"
1/
#250000
1!
1-
1.
10
1#
11
#255000
0"
0/
01
#260000
0!
1"
0-
1/
0.
11
#265000
0"
0/
01
#270000
1!
1"
1-
1/
1.
11
#280000
0!
0-
0.
#285000
0"
0/
01
#290000
1!
1"
1-
1/
1.
11
#300000
0!
0-
0.
#310000
1!
1-
1.
12
1$
#315000
0"
0/
#320000
0!
1"
0-
1/
0.
#330000
1!
1-
1.
#340000
0!
0-
0.
#350000
0"
1!
0/
1-
1.
00
0#
01
#360000
0!
0-
0.
#365000
1"
1/
13
1%
#370000
1!
0"
1-
0/
1.
03
0%
02
0$
#375000
1"
1/
#380000
0!
0-
0.
#390000
1!
1-
1.
10
1#
11
#400000
0"
0!
0/
0-
0.
01
#405000
1"
1/
11
#410000
1!
0"
1-
0/
1.
01
12
00
0#
1$
#415000
1"
1/
13
1%
#420000
0!
0"
0-
0/
0.
03
0%
#430000
1!
1"
1-
1/
1.
13
1%
02
10
1#
0$
03
11
0%
#435000
0"
0/
01
#440000
0!
1"
0-
1/
0.
11
#445000
0"
0/
01
#450000
1!
1-
1.
00
0#
#455000
1"
1/
#460000
0!
0-
0.
#465000
0"
0/
#470000
1!
1"
1-
1/
1.
10
1#
11
#480000
0!
0-
0.
#485000
0"
0/
01
#490000
1!
1"
1-
1/
1.
11
#500000
0!
0-
0.
#505000
0"
0/
01
#510000
1!
1"
1-
1/
1.
11
#515000
0"
0/
01
#520000
0!
1"
0-
1/
0.
11
#530000
1!
0"
1-
0/
1.
01
12
00
0#
1$
#535000
1"
1/
13
1%
#540000
0!
0"
0-
0/
0.
03
0%
#550000
1!
1-
1.
02
0$
#560000
1"
0!
1/
0-
0.
#565000
0"
0/
#570000
1!
1-
1.
#580000
0!
0-
0.
#590000
1"
1!
1/
1-
1.
10
1#
11
#595000
0"
0/
01
#600000
0!
0-
0.
#605000
1"
1/
11
#610000
1!
0"
1-
0/
1.
01
12
00
0#
1$
#615000
1"
1/
13
1%
#620000
0!
0"
0-
0/
0.
03
0%
#630000
1!
1"
1-
1/
1.
13
1%
02
10
1#
0$
03
11
0%
#635000
0"
0/
01
#640000
0!
1"
0-
1/
0.
11
#645000
0"
0/
01
#650000
1!
1-
1.
00
0#
#655000
1"
1/
#660000
0!
0-
0.
#670000
1!
1-
1.
10
1#
11
#675000
0"
0/
01
#680000
0!
0-
0.
#690000
1!
1-
1.
00
0#
#695000
1"
1/
#700000
0!
0"
0-
0/
0.
#710000
1!
1"
1-
1/
1.
10
1#
11
#720000
0!
0-
0.
#730000
0"
1!
0/
1-
1.
01
12
00
0#
1$
#735000
1"
1/
13
1%
#740000
0!
0-
0.
#745000
0"
0/
03
0%
#750000
1!
1-
1.
02
0$
#755000
1"
1/
#760000
0!
0"
0-
0/
0.
#770000
1!
1"
1-
1/
1.
10
1#
11
#775000
0"
0/
01
#780000
0!
0-
0.
#790000
1"
1!
1/
1-
1.
11
#800000
0!
0-
0.
#805000
0"
0/
01
#810000
1!
1"
1-
1/
1.
11
#820000
0!
0"
0-
0/
0.
01
#825000
1"
1/
11
#830000
1!
0"
1-
0/
1.
01
12
00
0#
1$
#840000
0!
1"
0-
1/
0.
13
1%
#850000
1!
0"
1-
0/
1.
03
0%
02
0$
#860000
0!
1"
0-
1/
0.
#865000
0"
0/
#870000
1!
1-
1.
#875000
1"
1/
#880000
0!
0-
0.
#890000
1!
1-
1.
10
1#
11
#895000
0"
0/
01
#900000
0!
0-
0.
#910000
1"
1!
1/
1-
1.
11
#920000
0"
0!
0/
0-
0.
01
#925000
1"
1/
11
#930000
1!
0"
1-
0/
1.
01
12
00
0#
1$
#940000
0!
1"
0-
1/
0.
13
1%
#945000
0"
0/
03
0%
#950000
1!
1-
1.
02
0$
#955000
1"
1/
#960000
0!
0"
0-
0/
0.
#965000
1"
1/
#970000
1!
0"
1-
0/
1.
#975000
1"
1/
#980000
0!
0"
0-
0/
0.
#985000
1"
1/
#990000
1!
1-
1.
10
1#
11
